<?xml version="1.0" encoding="utf-8"?>
<!-- Generator: Adobe Illustrator 19.2.1, SVG Export Plug-In . SVG Version: 6.00 Build 0)  -->
<svg version="1.1" id="Layer_1" xmlns="http://www.w3.org/2000/svg" xmlns:xlink="http://www.w3.org/1999/xlink" x="0px" y="0px"
	 viewBox="0 0 30 30" style="enable-background:new 0 0 30 30;" xml:space="preserve">
<style type="text/css">
	.st0{fill:#FFFFFF;}
</style>
<path id="XMLID_7_" class="st0" d="M15,30c-0.1,0-0.3,0-0.4,0l3.1-8.4h4.2c0.7,0,1.6-0.6,1.8-1.3l3.3-9.1c0.5-1.5-0.3-2.7-1.9-2.7
	h-5.9l-4.9,13.5h0l-2.8,7.6C4.9,28,0,22.1,0,15C0,8.1,4.6,2.3,11,0.6L8.1,8.4h0L3.3,21.6l3.2,0l4.1-11.1h2.4L8.9,21.6l3.2,0
	l3.8-10.4c0.5-1.5-0.3-2.7-1.9-2.7h-2.7L14.3,0c0.2,0,0.4,0,0.7,0c8.3,0,15,6.7,15,15C30,23.3,23.3,30,15,30z M24.1,10.4h-2.4
	l-3.3,9.2h2.4L24.1,10.4z"/>
</svg>
