<svg xmlns="http://www.w3.org/2000/svg" width="32" height="32" viewBox="0 0 32 32" xmlns:xlink="http://www.w3.org/1999/xlink">
  <defs>
    <rect id="a" width="1" height="7" x="6" y="8"/>
    <mask id="g" width="1" height="7" x="0" y="0" fill="white">
      <use xlink:href="#a"/>
    </mask>
    <rect id="b" width="1" height="7" x="9" y="3.183"/>
    <mask id="h" width="1" height="7" x="0" y="0" fill="white">
      <use xlink:href="#b"/>
    </mask>
    <rect id="c" width="1" height="7" x="9" y="7"/>
    <mask id="i" width="1" height="7" x="0" y="0" fill="white">
      <use xlink:href="#c"/>
    </mask>
    <rect id="d" width="1" height="7" x="6" y="1.183"/>
    <mask id="j" width="1" height="7" x="0" y="0" fill="white">
      <use xlink:href="#d"/>
    </mask>
    <rect id="e" width="1" height="7" x="3" y="3.183"/>
    <mask id="k" width="1" height="7" x="0" y="0" fill="white">
      <use xlink:href="#e"/>
    </mask>
    <polygon id="f" points="12 5.273 6.499 2 1 5.283 1 11.717 6.499 15 12 11.717 12 5.283 11.986 5.292"/>
    <mask id="l" width="13" height="15" x="-1" y="-1">
      <rect width="13" height="15" y="1" fill="white"/>
      <use fill="black" xlink:href="#f"/>
    </mask>
  </defs>
  <g fill="none" fill-rule="evenodd">
    <g transform="translate(9 7)">
      <use stroke="#E2E2E2" stroke-width="2" mask="url(#g)" xlink:href="#a"/>
      <use stroke="#E2E2E2" stroke-width="2" mask="url(#h)" transform="rotate(60 9.5 6.683)" xlink:href="#b"/>
      <use stroke="#E2E2E2" stroke-width="2" mask="url(#i)" xlink:href="#c"/>
      <use stroke="#E2E2E2" stroke-width="2" mask="url(#j)" transform="scale(-1 1) rotate(60 0 -6.575)" xlink:href="#d"/>
      <use stroke="#E2E2E2" stroke-width="2" mask="url(#k)" transform="scale(-1 1) rotate(60 0 .62)" xlink:href="#e"/>
      <use stroke="#E2E2E2" stroke-width="2" mask="url(#l)" stroke-linejoin="round" xlink:href="#f"/>
      <polygon fill="#E2E2E2" points="9.782 1.548 12.376 3.254 7.105 6.255 6.46 13.322 4.231 12.077 4.231 4.783" transform="rotate(120 8.304 7.435)"/>
    </g>
    <rect width="32" height="32"/>
  </g>
</svg>
