<svg xmlns="http://www.w3.org/2000/svg" width="32" height="32" viewBox="0 0 32 32" xmlns:xlink="http://www.w3.org/1999/xlink">
  <defs>
    <path id="a" d="M10.9490471,7 C12.0815514,7 13,5.43340095 13,3.5 C13,1.56659905 12.0815514,3.55271368e-15 10.9490471,3.55271368e-15 L2,0 L2,7 L10.9490471,7 Z"/>
    <mask id="e" width="11" height="7" x="0" y="0" fill="white">
      <use xlink:href="#a"/>
    </mask>
    <path id="b" d="M2,-3.55271368e-15 C3.10436893,-3.55271368e-15 4,1.56659905 4,3.5 C4,5.43340095 3.10436893,7 2,7 C0.895631068,7 0,5.43340095 0,3.5 C0,1.56659905 0.895631068,-3.55271368e-15 2,-3.55271368e-15 L2,-3.55271368e-15 Z"/>
    <mask id="f" width="4" height="7" x="0" y="0" fill="white">
      <use xlink:href="#b"/>
    </mask>
    <path id="c" d="M10.9490471,7 C12.0815514,7 13,5.43340095 13,3.5 C13,1.56659905 12.0815514,-3.55271368e-15 10.9490471,-3.55271368e-15 L2,-3.55271368e-15 L2,7 L10.9490471,7 Z"/>
    <mask id="g" width="11" height="7" x="0" y="0" fill="white">
      <use xlink:href="#c"/>
    </mask>
    <path id="d" d="M2,0 C3.10436893,0 4,1.56659905 4,3.5 C4,5.43340095 3.10436893,7 2,7 C0.895631068,7 0,5.43340095 0,3.5 C0,1.56659905 0.895631068,0 2,0 L2,0 Z"/>
    <mask id="h" width="4" height="7" x="0" y="0" fill="white">
      <use xlink:href="#d"/>
    </mask>
  </defs>
  <g fill="none" fill-rule="evenodd">
    <rect width="32" height="32"/>
    <g fill="#FFFFFF" stroke="#0096D6" stroke-width="2" transform="rotate(90 5.5 16.5)" stroke-linejoin="round">
      <use mask="url(#e)" xlink:href="#a"/>
      <use mask="url(#f)" xlink:href="#b"/>
    </g>
    <g fill="#FFFFFF" stroke="#0096D6" stroke-width="2" transform="rotate(90 4 12)" stroke-linejoin="round">
      <use mask="url(#g)" xlink:href="#c"/>
      <use mask="url(#h)" xlink:href="#d"/>
    </g>
    <g transform="rotate(-90 16.311 5.311)">
      <rect width="7" height="2" x=".622" y="3" fill="#FFFFFF"/>
      <polygon fill="#0096D6" points="6.622 9 1.622 9 4.122 4" transform="matrix(1 0 0 -1 0 13)"/>
      <rect width="1" height="4" x="3.622" fill="#0096D6"/>
    </g>
  </g>
</svg>
