<svg xmlns="http://www.w3.org/2000/svg" width="32" height="32" viewBox="0 0 32 32" xmlns:xlink="http://www.w3.org/1999/xlink">
  <defs>
    <rect id="a" width="1" height="7" x="6" y="12"/>
    <mask id="e" width="1" height="7" x="0" y="0" fill="white">
      <use xlink:href="#a"/>
    </mask>
    <polygon id="b" points="12 9.273 6.499 6 1 9.283 1 15.717 6.499 19 12 15.717 12 9.283 11.986 9.292"/>
    <mask id="f" width="13" height="15" x="-1" y="-1">
      <rect width="13" height="15" y="5" fill="white"/>
      <use fill="black" xlink:href="#b"/>
    </mask>
    <polygon id="g" points="11 3.273 5.499 0 0 3.283 0 9.717 5.499 13 11 9.717 11 3.283 10.986 3.292"/>
    <polygon id="c" points="11 10.273 5.499 7 0 10.283 0 16.717 5.499 20 11 16.717 11 10.283 10.986 10.292"/>
    <mask id="i" width="13" height="15" x="-1" y="-1">
      <rect width="13" height="15" x="-1" y="6" fill="white"/>
      <use fill="black" xlink:href="#c"/>
    </mask>
    <polygon id="d" points="6.5 3 13 8.25 6.5 12 0 8.25"/>
    <mask id="j" width="15" height="11" x="-1" y="-1">
      <rect width="15" height="11" x="-1" y="2" fill="white"/>
      <use fill="black" xlink:href="#d"/>
    </mask>
  </defs>
  <g fill="none" fill-rule="evenodd">
    <g>
      <g transform="translate(9 5)">
        <use stroke="#E2E2E2" stroke-width="2" mask="url(#e)" transform="matrix(-1 0 0 1 13 0)" xlink:href="#a"/>
        <use stroke="#E2E2E2" stroke-width="2" mask="url(#f)" stroke-linejoin="round" xlink:href="#b"/>
        <g transform="translate(1)">
          <mask id="h" fill="white">
            <use xlink:href="#g"/>
          </mask>
          <g mask="url(#h)">
            <use fill="#3E3E3E" xlink:href="#c"/>
            <use stroke="#3E3E3E" stroke-width="2" mask="url(#i)" stroke-linejoin="round" xlink:href="#c"/>
          </g>
        </g>
        <use fill="#FFFFFF" xlink:href="#d"/>
        <use stroke="#E2E2E2" stroke-width="2" mask="url(#j)" xlink:href="#d"/>
      </g>
      <rect width="32" height="32"/>
    </g>
    <rect width="1" height="10" x="15" y="8" fill="#E2E2E2"/>
  </g>
</svg>
