<svg xmlns="http://www.w3.org/2000/svg" width="32" height="32" viewBox="0 0 32 32" xmlns:xlink="http://www.w3.org/1999/xlink">
  <defs>
    <path id="a" d="M10.9490471,7 C12.0815514,7 13,5.43340095 13,3.5 C13,1.56659905 12.0815514,3.55271368e-15 10.9490471,3.55271368e-15 L2,0 L2,7 L10.9490471,7 Z"/>
    <mask id="c" width="11" height="7" x="0" y="0" fill="white">
      <use xlink:href="#a"/>
    </mask>
    <path id="b" d="M2,-3.55271368e-15 C3.10436893,-3.55271368e-15 4,1.56659905 4,3.5 C4,5.43340095 3.10436893,7 2,7 C0.895631068,7 0,5.43340095 0,3.5 C0,1.56659905 0.895631068,-3.55271368e-15 2,-3.55271368e-15 L2,-3.55271368e-15 Z"/>
    <mask id="d" width="4" height="7" x="0" y="0" fill="white">
      <use xlink:href="#b"/>
    </mask>
  </defs>
  <g fill="none" fill-rule="evenodd">
    <rect width="32" height="32"/>
    <g transform="translate(8 6)">
      <path stroke="#3E3E3E" d="M13.5,19.5 L1.5,19.5" stroke-linecap="square"/>
      <g transform="translate(6 12)">
        <path stroke="#3E3E3E" d="M1.5,0.5 L1.5,3.5" stroke-linecap="square"/>
        <polygon fill="#3E3E3E" points="1.5 3 3 6 0 6" transform="matrix(1 0 0 -1 0 9)"/>
      </g>
      <g fill="#FFFFFF" stroke="#3E3E3E" stroke-width="2" transform="rotate(-25 13.766 2.745)" stroke-linejoin="round">
        <use mask="url(#c)" xlink:href="#a"/>
        <use mask="url(#d)" xlink:href="#b"/>
      </g>
    </g>
  </g>
</svg>
