<svg xmlns="http://www.w3.org/2000/svg" width="32" height="32" viewBox="0 0 32 32" xmlns:xlink="http://www.w3.org/1999/xlink">
  <defs>
    <rect id="a" width="5" height="5" x="6" y="6"/>
    <mask id="b" width="5" height="5" x="0" y="0" fill="white">
      <use xlink:href="#a"/>
    </mask>
  </defs>
  <g fill="none" fill-rule="evenodd">
    <rect width="32" height="32"/>
    <g fill="#3E3E3E" transform="translate(7 8)">
      <polygon points="8.5 0 11 5 6 5"/>
      <polygon points="12 11 12 6 17 8.5"/>
      <polygon points="0 11 0 6 5 8.5" transform="matrix(-1 0 0 1 5 0)"/>
      <polygon points="8.5 12 11 17 6 17" transform="matrix(1 0 0 -1 0 29)"/>
      <use stroke="#FFFFFF" stroke-width="2" mask="url(#b)" xlink:href="#a"/>
    </g>
  </g>
</svg>
