<svg xmlns="http://www.w3.org/2000/svg" width="32" height="32" viewBox="0 0 32 32" xmlns:xlink="http://www.w3.org/1999/xlink">
  <defs>
    <polygon id="a" points="0 0 16 0 16 16 0 16"/>
  </defs>
  <g fill="none" fill-rule="evenodd">
    <rect width="32" height="32"/>
    <g transform="translate(7 8)">
      <mask id="b" fill="white">
        <use xlink:href="#a"/>
      </mask>
      <path fill="#FFFFFF" d="M15.3333333,3.66666667 L15.3333333,13.3333333 C15.3333333,14.8 14.1333333,16 12.6666667,16 L7.8,16 C7.08,16 6.4,15.7133333 5.9,15.2066667 L0.666666667,9.88666667 C0.666666667,9.88666667 1.50666667,9.06666667 1.53333333,9.05333333 C1.68,8.92666667 1.86,8.86 2.06,8.86 C2.20666667,8.86 2.34,8.9 2.46,8.96666667 C2.48666667,8.97333333 5.33333333,10.6066667 5.33333333,10.6066667 L5.33333333,2.66666667 C5.33333333,2.11333333 5.78,1.66666667 6.33333333,1.66666667 C6.88666667,1.66666667 7.33333333,2.11333333 7.33333333,2.66666667 L7.33333333,7.33333333 L8,7.33333333 L8,1 C8,0.446666667 8.44666667,0 9,0 C9.55333333,0 10,0.446666667 10,1 L10,7.33333333 L10.6666667,7.33333333 L10.6666667,1.66666667 C10.6666667,1.11333333 11.1133333,0.666666667 11.6666667,0.666666667 C12.22,0.666666667 12.6666667,1.11333333 12.6666667,1.66666667 L12.6666667,7.33333333 L13.3333333,7.33333333 L13.3333333,3.66666667 C13.3333333,3.11333333 13.78,2.66666667 14.3333333,2.66666667 C14.8866667,2.66666667 15.3333333,3.11333333 15.3333333,3.66666667 L15.3333333,3.66666667 Z" mask="url(#b)"/>
    </g>
  </g>
</svg>
