<svg xmlns="http://www.w3.org/2000/svg" width="32" height="32" viewBox="0 0 32 32" xmlns:xlink="http://www.w3.org/1999/xlink">
  <defs>
    <rect id="a" width="16" height="16"/>
    <mask id="c" width="16" height="16" x="0" y="0" fill="white">
      <use xlink:href="#a"/>
    </mask>
    <rect id="b" width="8" height="8" y="8"/>
    <mask id="d" width="8" height="8" x="0" y="0" fill="white">
      <use xlink:href="#b"/>
    </mask>
  </defs>
  <g fill="none" fill-rule="evenodd">
    <rect width="32" height="32"/>
    <g transform="translate(8 8)">
      <use stroke="#FFFFFF" stroke-width="2" mask="url(#c)" xlink:href="#a"/>
      <use stroke="#FFFFFF" stroke-width="2" mask="url(#d)" xlink:href="#b"/>
      <polygon fill="#FFFFFF" points="9 2 14 2 14 7"/>
      <rect width="6" height="1" x="6.535" y="5.912" fill="#FFFFFF" transform="rotate(-43 9.535 6.412)"/>
    </g>
  </g>
</svg>
