<svg xmlns="http://www.w3.org/2000/svg" width="32" height="32" viewBox="0 0 32 32" xmlns:xlink="http://www.w3.org/1999/xlink">
  <defs>
    <rect id="a" width="1" height="7" x="7" y="2"/>
    <mask id="g" width="1" height="7" x="0" y="0" fill="white">
      <use xlink:href="#a"/>
    </mask>
    <rect id="b" width="1" height="7" x="4" y="6.683"/>
    <mask id="h" width="1" height="7" x="0" y="0" fill="white">
      <use xlink:href="#b"/>
    </mask>
    <rect id="c" width="1" height="8" x="4.714" y="3.433"/>
    <mask id="i" width="1" height="8" x="0" y="0" fill="white">
      <use xlink:href="#c"/>
    </mask>
    <rect id="d" width="1" height="7" x="9.781" y="3.683"/>
    <mask id="j" width="1" height="7" x="0" y="0" fill="white">
      <use xlink:href="#d"/>
    </mask>
    <rect id="e" width="1" height="7" x="7" y="8.5"/>
    <mask id="k" width="1" height="7" x="0" y="0" fill="white">
      <use xlink:href="#e"/>
    </mask>
    <polygon id="f" points="13 5.273 7.499 2 2 5.283 2 11.717 7.499 15 13 11.717 13 5.283 12.986 5.292"/>
    <mask id="l" width="13" height="15" x="-1" y="-1">
      <rect width="13" height="15" x="1" y="1" fill="white"/>
      <use fill="black" xlink:href="#f"/>
    </mask>
    <polygon id="m" points="11 3.273 5.499 0 0 3.283 0 9.717 5.499 13 11 9.717 11 3.283 10.986 3.292"/>
  </defs>
  <g fill="none" fill-rule="evenodd">
    <g transform="matrix(-1 0 0 1 23 7)">
      <use stroke="#C0E5EF" stroke-width="2" mask="url(#g)" transform="matrix(-1 0 0 1 15 0)" xlink:href="#a"/>
      <use stroke="#C0E5EF" stroke-width="2" mask="url(#h)" transform="rotate(60 4.5 10.183)" xlink:href="#b"/>
      <use stroke="#0096D6" stroke-width="2" mask="url(#i)" transform="scale(-1 1) rotate(60 0 -1.598)" xlink:href="#c"/>
      <use stroke="#0096D6" stroke-width="2" mask="url(#j)" transform="rotate(60 10.281 7.183)" xlink:href="#d"/>
      <use stroke="#0096D6" stroke-width="2" mask="url(#k)" transform="matrix(-1 0 0 1 15 0)" xlink:href="#e"/>
      <use stroke="#0096D6" stroke-width="2" mask="url(#l)" stroke-linejoin="round" xlink:href="#f"/>
      <g transform="rotate(-60 8.683 5.013)">
        <mask id="n" fill="white">
          <use xlink:href="#m"/>
        </mask>
        <polygon fill="#0096D6" points="10.5 9.407 4.999 6.134 -.5 9.417 -.5 15.85 4.999 19.134 10.5 15.85 10.5 9.417 10.486 9.426" mask="url(#n)"/>
      </g>
    </g>
    <rect width="32" height="32"/>
  </g>
</svg>
